[
    {
        "shop": "ABC Bakery",
        "price": 12000,
        "shopAddress": "18 Tran Quy",
        "customerAddress": "155 Tran Binh Thanh"
    },
    {
        "shop": "ABE Bakery",
        "price": 32000,
        "shopAddress": "17 Tran Quy",
        "customerAddress": "155 Tran Binh Bong"
    },
    {
        "shop": "DCD Bakery",
        "price": 12400,
        "shopAddress": "16 Tran Quy",
        "customerAddress": "155 Tran Binh Trong"
    },
    {
        "shop": "DCD Bakery",
        "price": 12400,
        "shopAddress": "16 Tran Quy",
        "customerAddress": "155 Tran Binh Trong"
    },
    {
        "shop": "DCD Bakery",
        "price": 12400,
        "shopAddress": "16 Tran Quy",
        "customerAddress": "155 Tran Binh Trong"
    }
]